{"msg":"init","dagFile":"artifacts\\tundra.dag","targets":[]}
{"msg":"inputSignatureChanged","annotation":"Il2Cpp D:/Bitbucket/Sema Online/New Unity Project/Library/Il2cppBuildCache/WebGL/Native/build.bc","index":2,"changes":[{"key":"InputFileDigest","path":"D:\\Bitbucket\\Sema Online\\New Unity Project\\Temp\\StagingArea\\Data\\Managed\\Assembly-CSharp.dll","dependency":"explicit"},{"key":"InputFileDigest","path":"D:\\Bitbucket\\Sema Online\\New Unity Project\\Temp\\StagingArea\\Data\\Managed\\mscorlib.dll","dependency":"explicit"},{"key":"InputFileDigest","path":"D:\\Bitbucket\\Sema Online\\New Unity Project\\Temp\\StagingArea\\Data\\Managed\\UnityEngine.AudioModule.dll","dependency":"explicit"},{"key":"InputFileDigest","path":"D:\\Bitbucket\\Sema Online\\New Unity Project\\Temp\\StagingArea\\Data\\Managed\\UnityEngine.CoreModule.dll","dependency":"explicit"},{"key":"InputFileDigest","path":"D:\\Bitbucket\\Sema Online\\New Unity Project\\Library\\Il2cppBuildCache\\WebGL\\additionalCppFiles\\UnityICallRegistration.cpp","dependency":"explicit"}]}
{"msg":"noderesult","annotation":"Il2Cpp D:/Bitbucket/Sema Online/New Unity Project/Library/Il2cppBuildCache/WebGL/Native/build.bc","index":2,"exitcode":0}
